INDEX VERSION 1.127+/Users/marcelo/Documents/workspace/.metadata/.plugins/org.eclipse.jdt.core
3768130928.index
4097666995.index
3308076460.index
725501741.index
1503498772.index
1270315800.index
1110658357.index
2099781699.index
3462049683.index
205847976.index
190750833.index
1003475550.index
1938867037.index
322193810.index
89155230.index
3675100127.index
2198052051.index
1895495010.index
1704656945.index
3896006949.index
2104996901.index
1590502784.index
3165447941.index
